-------------------------------------------------------------------------------
Test set: de.focusdv.bcs.AppTest
-------------------------------------------------------------------------------
Tests run: 1, Failures: 0, Errors: 0, Skipped: 0, Time elapsed: 0.114 s - in de.focusdv.bcs.AppTest
